%YAML 1.1
%TAG !u! tag:unity3d.com,2011:
--- !u!21 &2100000
Material:
  serializedVersion: 8
  m_ObjectHideFlags: 0
  m_CorrespondingSourceObject: {fileID: 0}
  m_PrefabInstance: {fileID: 0}
  m_PrefabAsset: {fileID: 0}
  m_Name: Grenadier_Core_Mat
  m_Shader: {fileID: 10755, guid: 0000000000000000f000000000000000, type: 0}
  m_ValidKeywords: []
  m_InvalidKeywords:
  - _EMISSION
  m_LightmapFlags: 1
  m_EnableInstancingVariants: 0
  m_DoubleSidedGI: 0
  m_CustomRenderQueue: -1
  stringTagMap: {}
  disabledShaderPasses: []
  m_SavedProperties:
    serializedVersion: 3
    m_TexEnvs:
    - _3dTex:
        m_Texture: {fileID: 11700000, guid: ce515a5a715cb574eb40037cfb1ab766, type: 2}
        m_Scale: {x: 1, y: 1}
        m_Offset: {x: 0, y: 0}
    - _Albedo:
        m_Texture: {fileID: 0}
        m_Scale: {x: 1, y: 1}
        m_Offset: {x: 0, y: 0}
    - _Albedo01:
        m_Texture: {fileID: 0}
        m_Scale: {x: 1, y: 1}
        m_Offset: {x: 0, y: 0}
    - _Albedo02:
        m_Texture: {fileID: 0}
        m_Scale: {x: 1, y: 1}
        m_Offset: {x: 0, y: 0}
    - _BumpMap:
        m_Texture: {fileID: 0}
        m_Scale: {x: 1, y: 1}
        m_Offset: {x: 0, y: 0}
    - _Detail:
        m_Texture: {fileID: 0}
        m_Scale: {x: 1, y: 1}
        m_Offset: {x: 0, y: 0}
    - _DetailAlbedoMap:
        m_Texture: {fileID: 0}
        m_Scale: {x: 1, y: 1}
        m_Offset: {x: 0, y: 0}
    - _DetailMask:
        m_Texture: {fileID: 0}
        m_Scale: {x: 1, y: 1}
        m_Offset: {x: 0, y: 0}
    - _DetailNormalMap:
        m_Texture: {fileID: 0}
        m_Scale: {x: 1, y: 1}
        m_Offset: {x: 0, y: 0}
    - _Distort:
        m_Texture: {fileID: 2800000, guid: dabb03e60014f8d4cad47e234fe8a5fa, type: 3}
        m_Scale: {x: 5, y: 5}
        m_Offset: {x: 0, y: 0}
    - _Distortion:
        m_Texture: {fileID: 0}
        m_Scale: {x: 1, y: 1}
        m_Offset: {x: 0, y: 0}
    - _EmissionMap:
        m_Texture: {fileID: 0}
        m_Scale: {x: 1, y: 1}
        m_Offset: {x: 0, y: 0}
    - _EmissiveTex:
        m_Texture: {fileID: 2800000, guid: 00c85369526ff224abac6eb7f70f5f36, type: 3}
        m_Scale: {x: 3, y: 3}
        m_Offset: {x: 0, y: 0}
    - _GlowLine:
        m_Texture: {fileID: 2800000, guid: 78b806e14db6ba64c8a7f0f11a2de4dd, type: 3}
        m_Scale: {x: 0, y: 3}
        m_Offset: {x: 0, y: 0}
    - _MainTex:
        m_Texture: {fileID: 2800000, guid: 184401f9f92df5c48943f146749e938c, type: 3}
        m_Scale: {x: 1, y: 1}
        m_Offset: {x: 0, y: 0}
    - _MetallicGlossMap:
        m_Texture: {fileID: 2800000, guid: e2e91ae76098a544fa2df672fa40013a, type: 3}
        m_Scale: {x: 1, y: 1}
        m_Offset: {x: 0, y: 0}
    - _MetallicSmooth:
        m_Texture: {fileID: 2800000, guid: a6002dc71f03d488c8e9418969300cb8, type: 3}
        m_Scale: {x: 1, y: 1}
        m_Offset: {x: 0, y: 0}
    - _NormalMap:
        m_Texture: {fileID: 0}
        m_Scale: {x: 1, y: 1}
        m_Offset: {x: 0, y: 0}
    - _NormalMap01:
        m_Texture: {fileID: 0}
        m_Scale: {x: 1, y: 1}
        m_Offset: {x: 0, y: 0}
    - _NormalMap02:
        m_Texture: {fileID: 0}
        m_Scale: {x: 1, y: 1}
        m_Offset: {x: 0, y: 0}
    - _OcclusionMap:
        m_Texture: {fileID: 0}
        m_Scale: {x: 1, y: 1}
        m_Offset: {x: 0, y: 0}
    - _PackedMap:
        m_Texture: {fileID: 2800000, guid: bd7091ae5f8307e4e8a89d9b4b725360, type: 3}
        m_Scale: {x: 2, y: 2}
        m_Offset: {x: 0, y: 1}
    - _ParallaxMap:
        m_Texture: {fileID: 0}
        m_Scale: {x: 1, y: 1}
        m_Offset: {x: 0, y: 0}
    - _Ramp:
        m_Texture: {fileID: 2800000, guid: 60da32e447f278b44aed3835491cf713, type: 3}
        m_Scale: {x: 1, y: 1}
        m_Offset: {x: 0, y: 0}
    - _Ramp2:
        m_Texture: {fileID: 2800000, guid: 3c2f52a424d13bd4d9e2830bc4b81d25, type: 3}
        m_Scale: {x: 1, y: 1}
        m_Offset: {x: 0, y: 0}
    - _Spec01:
        m_Texture: {fileID: 0}
        m_Scale: {x: 1, y: 1}
        m_Offset: {x: 0, y: 0}
    - _Spec02:
        m_Texture: {fileID: 0}
        m_Scale: {x: 1, y: 1}
        m_Offset: {x: 0, y: 0}
    - _SpecGloss:
        m_Texture: {fileID: 2800000, guid: e2e91ae76098a544fa2df672fa40013a, type: 3}
        m_Scale: {x: 1, y: 1}
        m_Offset: {x: 0, y: 0}
    - _SpecGlossMap:
        m_Texture: {fileID: 0}
        m_Scale: {x: 1, y: 1}
        m_Offset: {x: 0, y: 0}
    - _noiseTex:
        m_Texture: {fileID: 2800000, guid: baea65a7abf3c5a4095956327ddb1122, type: 3}
        m_Scale: {x: 1, y: 1}
        m_Offset: {x: 0, y: 0}
    m_Ints: []
    m_Floats:
    - _Amount: 3.58
    - _Blend: 0.5
    - _BlendRange: 0.5
    - _BumpScale: 1
    - _Cells: 8
    - _Cutoff: 0.5
    - _DetailNormalMapScale: 1
    - _DstBlend: 0
    - _EffectAmount: 0.2
    - _GlossMapScale: 1
    - _Glossiness: 0
    - _GlossyReflections: 1
    - _MaxDiff: 0.3
    - _Metallic: 0
    - _Metallic01: 0
    - _Metallic02: 0
    - _Mode: 0
    - _OcclusionStrength: 1
    - _Parallax: 0.02
    - _RimPower: 1
    - _RimPower2: 3
    - _Scale: 1
    - _Smoothness01: 0.5
    - _Smoothness02: 0.5
    - _SmoothnessTextureChannel: 0
    - _Specular: 1
    - _SpecularHighlights: 1
    - _SrcBlend: 1
    - _UVSec: 0
    - _VertexAnimate: 0
    - _ZWrite: 1
    - _distortionScale1: 0.5
    - _distortionScale2: 0.8
    - _distortionScaleMultiplyer: 2
    - _glowFrequency: 4
    - _glowMax: 1
    - _glowMin: 1
    - _marchDistance: 10
    - _numSteps: 16
    - _speed: 0.2
    - _vertOffset: 0
    - _vertScale: 0.1
    m_Colors:
    - _Color: {r: 0, g: 6.4908695, b: 10.556064, a: 1}
    - _Color01: {r: 1, g: 1, b: 1, a: 1}
    - _Color02: {r: 1, g: 1, b: 1, a: 1}
    - _Color2: {r: 0, g: 0.049780887, b: 0.18946455, a: 1}
    - _EmissionColor: {r: 0.4864262, g: 0.921008, b: 3.007, a: 1}
    - _EmissiveColor: {r: 0.21323514, g: 0.6093307, b: 1, a: 1}
    - _RimColor: {r: 0.25999996, g: 0.18999997, b: 0.15999997, a: 0}
    - _SpecCol: {r: 0.25999996, g: 0.18999997, b: 0.15999997, a: 0}
    - _SpecColor: {r: 0.19999996, g: 0.19999996, b: 0.19999996, a: 1}
    - _vertSpeed: {r: 1, g: 100, b: 50, a: 0}
  m_BuildTextureStacks: []
